﻿{
  "profiles": {
    "kestrel": {
      "commandName": "kestrel",
      "environmentVariables": {
        "ASPNET_ENV": "Development",
        "LOG_FORMAT": "Plain",
        "LENDDO_CONFIGURATION_HOST": "192.168.1.65",
        "LENDDO_CONFIGURATION_PORT": "5008",
        "LENDDO_EVENTHUB_HOST": "192.168.1.65",
        "LENDDO_EVENTHUB_PORT": "5004",
        "LENDDO_TENANT_HOST": "192.168.1.65",
        "LENDDO_TENANT_PORT": "5014",
        //"LENDDO_TLSPROXY_HOST": "192.168.1.65",
        //"LENDDO_TLSPROXY_PORT": "5010",
        //"LENDDO_TOKEN_ISSUER": "lenddo"
        "LENDDO_NATS_URL": "192.168.1.59:4222",
        "LENDDO_LOOKUPSERVICE_HOST": "192.168.1.65",
        "LENDDO_LOOKUPSERVICE_PORT": "5041",
        "LENDDO_MONGO_CONNECTION": "mongodb://192.168.1.65:27017"
      }
    }
  }
}