{
  "version": "1.1.1",
  "description": "CreditExchange.Syndication.Cibil Class Library",
  "authors": [ "nilken.bm" ],
  "tags": [ "" ],
  "projectUrl": "",
  "licenseUrl": "",
  "dependencies": {

    "LendFoundry.Clients.DecisionEngine": "2.0.1-develop-*",
    "LendFoundry.Security.Tokens.Abstractions": "1.0.0-develop-*",
    "LendFoundry.Foundation.Date": "1.0.4-develop-900180",
    "LendFoundry.Foundation.Logging": "1.0.10-develop-*",
    "LendFoundry.Foundation.Client": "1.0.0-develop-*",
    "LendFoundry.Foundation.Services": "1.0.12-develop-*",

    "LendFoundry.SyndicationStore.Abstractions": "1.0.1-develop-*",
    "LendFoundry.Configuration.Client": "1.0.8-develop-*",
    "LendFoundry.EventHub.Abstractions": "3.0.1-develop-*",
    "LendFoundry.EventHub.Client": "3.0.1-develop-*",
    "LendFoundry.Tenant.Abstractions": "1.0.2-develop-900015",
    "LendFoundry.Tenant.Client": "1.0.10-develop-900028",
    "Microsoft.Framework.DependencyInjection.Abstractions": "1.0.0-beta8",
    "LendFoundry.VerificationEngine.Abstractions": "1.1.1-*",
    "LendFoundry.VerificationEngine.Client": "1.1.1-*",
    "Microsoft.AspNet.Http.Abstractions": "1.0.0-beta8"
  },
  "frameworks": {
    "dnx451": {}
  }
}
