﻿{
  "version": "1.1.1",

  "dependencies": {
    "CreditExchange.Syndication.Cibil": "",
    "CreditExchange.Cibil.Persistence": "",
    "LendFoundry.EventHub.Abstractions": "3.0.1-develop-*",
    "LendFoundry.Security.Tokens.Abstractions": "1.0.0-develop-*",
    "LendFoundry.Tenant.Abstractions": "1.0.2-develop-900015",
    "Microsoft.Framework.DependencyInjection.Abstractions": "1.0.0-beta8"

  },

  "frameworks": {
    "dnx451": {}
  }
}
