﻿{
  "profiles": {
    "kestrel": {
      "commandName": "kestrel",
      "environmentVariables": {
        "ASPNET_ENV": "Development",
        "LOG_FORMAT": "plain",
        "CIBIL_CONFIGURATION_HOST": "192.168.1.71",
        "CIBIL_CONFIGURATION_PORT": "5008",
        "CIBIL_EVENTHUB_HOST": "192.168.1.71",
        "CIBIL_EVENTHUB_PORT": "5004",
        "CIBIL_TENANT_HOST": "192.168.1.71",
        "CIBIL_TENANT_PORT": "5014",
        "CIBIL_LOOKUPSERVICE_HOST": "192.168.1.71",
        "CIBIL_LOOKUPSERVICE_PORT": "5041",
        "CIBIL_NATS_URL": "192.168.1.71:4222",
        "CIBIL_MONGO_CONNECTION": "mongodb://192.168.1.71",
        "CIBIL_MONGO_DATABASE": "cibilData",
        "CIBIL_DECISIONENGINE_PORT": "5076",
        "CIBIL_DECISIONENGINE_HOST": "192.168.1.71"
      }
    }
  }
}