﻿{
  "profiles": {
    "kestrel": {
      "commandName": "kestrel",
      "environmentVariables": {
        "ASPNET_ENV": "Development",
        "LOG_FORMAT": "plain",
        "EMAILAGE_CONFIGURATION_HOST": "10.1.1.99",
        "EMAILAGE_CONFIGURATION_PORT": "5001",
        "EMAILAGE_EVENTHUB_HOST": "10.1.1.99",
        "EMAILAGE_EVENTHUB_PORT": "5006",
        "EMAILAGE_TENANT_HOST": "10.1.1.99",
        "EMAILAGE_TENANT_PORT": "5005",
        "EMAILAGE_TOKEN_ISSUER": "emailage"

      }
    }
  }
}