﻿{
  "version": "1.1.1",

  "dependencies": {
    "CreditExchange.Syndication.Zumigo": "",
    "LendFoundry.Foundation.Logging": "1.0.10-develop-*",
    "LendFoundry.Foundation.Persistence": "1.0.2-develop-*",
    "LendFoundry.Foundation.Persistence.Mongo": "1.0.2-develop-*",
    "LendFoundry.Security.Tokens.Abstractions": "1.0.0-develop-*"
  },
  "frameworks": {
    "dnx451": {}
  }
}
